amino_acid	alphatic	sulfur	aromatic	hydrophobic	charged	polar	basic	acidic	small	tiny	hydroxylic
A	0	0	0	1	0	0	0	0	1	1	0
C	0	1	0	1	0	1	0	0	1	1	0
D	0	0	0	0	1	1	0	0	1	0	0
E	0	0	0	0	1	1	0	0	0	0	0
F	0	0	1	1	0	0	0	0	0	0	0
G	0	0	0	0	0	0	0	0	1	1	0
H	0	0	1	1	1	1	1	0	0	0	0
I	1	0	0	1	0	0	0	0	0	0	0
K	0	0	0	1	1	1	1	0	0	0	0
L	1	0	0	1	0	0	0	0	0	0	0
M	0	1	0	1	0	0	0	0	0	0	0
N	0	0	0	0	0	1	0	1	1	0	0
P	0	0	0	0	0	0	0	0	1	0	0
Q	0	0	0	0	0	1	0	1	0	0	0
R	0	0	0	0	1	1	1	0	0	0	0
S	0	0	0	0	0	1	0	0	1	1	1
T	0	0	0	1	0	1	0	0	1	0	1
V	1	0	0	1	0	0	0	0	1	0	0
W	0	0	1	1	0	1	0	0	0	0	0
Y	0	0	1	1	0	1	0	0	0	0	0